%YAML 1.1
%TAG !u! tag:unity3d.com,2011:
--- !u!1045 &1
EditorBuildSettings:
  m_ObjectHideFlags: 0
  serializedVersion: 2
  m_Scenes:
  - enabled: 1
    path: Assets/Scenes/SplashScreen.unity
  - enabled: 1
    path: Assets/Scenes/MainMenu.unity
  - enabled: 0
    path: Assets/Scenes/TestScenes/Tzar.unity
  - enabled: 1
    path: Assets/Scenes/StartLevel.unity
  - enabled: 1
    path: Assets/Scenes/BuildScenes/SceneBuilding.unity
  - enabled: 0
    path: Assets/Scenes/TestScenes/DouglasTestScene.unity
  - enabled: 0
    path: Assets/Scenes/TestScenes/MattTestScene.unity
  - enabled: 1
    path: Assets/Scenes/GameOver.unity
  - enabled: 1
    path: Assets/Scenes/Credits.unity
  - enabled: 1
    path: Assets/UI/DialogueText/TextScene/IntroPrototype.unity
  - enabled: 1
    path: Assets/UI/DialogueText/TextScene/ConclusionPrototype.unity
  - enabled: 1
    path: Assets/UI/DialogueText/TextScene/FinalCredits.unity
