%YAML 1.1
%TAG !u! tag:unity3d.com,2011:
--- !u!21 &2100000
Material:
  serializedVersion: 6
  m_ObjectHideFlags: 0
  m_PrefabParentObject: {fileID: 0}
  m_PrefabInternal: {fileID: 0}
  m_Name: SCHWING
  m_Shader: {fileID: 203, guid: 0000000000000000f000000000000000, type: 0}
  m_ShaderKeywords: _ALPHATEST_ON
  m_LightmapFlags: 5
  m_CustomRenderQueue: -1
  stringTagMap:
    RenderType: TransparentCutout
  m_SavedProperties:
    serializedVersion: 2
    m_TexEnvs:
    - first:
        name: _MainTex
      second:
        m_Texture: {fileID: 2800000, guid: 4b3c324517b7db34ea578229593b7aee, type: 3}
        m_Scale: {x: 1, y: 1}
        m_Offset: {x: 0, y: 0}
    m_Floats:
    - first:
        name: _InvFade
      second: 1
    m_Colors:
    - first:
        name: _TintColor
      second: {r: 0.77205884, g: 0.77205884, b: 0.77205884, a: 0.128}
